cpu/wave.vcd
$date
	Thu Jun 04 20:55:13 2020
$end
$version
	Icarus Verilog
$end
$timescale
	1ps
$end
$scope module mips $end
$var wire 6 ! hard_int [5:0] $end
$var wire 3 " io_btn [2:0] $end
$var wire 4 # io_keypad_row [3:0] $end
$var wire 8 $ io_switch [7:0] $end
$var wire 5 % shamt [4:0] $end
$var wire 5 & rt [4:0] $end
$var wire 5 ' rs [4:0] $end
$var wire 5 ( reg_wr_num [4:0] $end
$var wire 32 ) reg_wr_data [31:0] $end
$var wire 1 * reg_wr $end
$var wire 2 + reg_src [1:0] $end
$var wire 5 , reg_rd_num2 [4:0] $end
$var wire 1 - reg_in $end
$var wire 2 . reg_dst [1:0] $end
$var wire 32 / reg_data2 [31:0] $end
$var wire 32 0 reg_data1 [31:0] $end
$var wire 5 1 rd [4:0] $end
$var wire 32 2 pc_rt_addr [31:0] $end
$var wire 4 3 pc_op [3:0] $end
$var wire 6 4 opcode [5:0] $end
$var wire 8 5 io_seven_seg_n [7:0] $end
$var wire 6 6 io_seg_enables [5:0] $end
$var wire 8 7 io_led [7:0] $end
$var wire 4 8 io_keypad_col [3:0] $end
$var wire 32 9 ins_addr [31:0] $end
$var wire 32 : ins [31:0] $end
$var wire 26 ; im2 [25:0] $end
$var wire 16 < im1 [15:0] $end
$var wire 6 = funct [5:0] $end
$var wire 2 > ext_op [1:0] $end
$var wire 32 ? ext_data [31:0] $end
$var wire 1 @ dm_wr $end
$var wire 1 A dm_rd $end
$var wire 3 B dm_op [2:0] $end
$var wire 32 C dm_data [31:0] $end
$var wire 1 D div_clk $end
$var wire 1 E cop_wr $end
$var wire 3 F cop_sel [2:0] $end
$var wire 1 G cop_rd $end
$var wire 4 H cop_op [3:0] $end
$var wire 32 I cop_data [31:0] $end
$var wire 20 J cop_code [19:0] $end
$var wire 1 K alu_src $end
$var wire 32 L alu_res [31:0] $end
$var wire 6 M alu_op [5:0] $end
$var wire 32 N alu_in2 [31:0] $end
$var wire 1 O alu_flag_zero $end
$var wire 1 P alu_flag_overflow $end
$var wire 1 Q alu_flag_great $end
$var reg 1 R clk $end
$var reg 1 S rst $end
$scope module alu $end
$var wire 32 T b [31:0] $end
$var wire 1 R clk $end
$var wire 5 U ins15_11 [4:0] $end
$var wire 32 V sa [31:0] $end
$var wire 32 W sb [31:0] $end
$var wire 5 X shamt [4:0] $end
$var wire 32 Y ua [31:0] $end
$var wire 32 Z ub [31:0] $end
$var wire 64 [ rot [63:0] $end
$var wire 64 \ mulu_res [63:0] $end
$var wire 64 ] mul_res [63:0] $end
$var wire 32 ^ ins_mask [31:0] $end
$var wire 6 _ alu_op [5:0] $end
$var wire 32 ` a [31:0] $end
$var reg 65 a _temp [64:0] $end
$var reg 1 Q great $end
$var reg 32 b out [31:0] $end
$var reg 1 P overflow $end
$var reg 1 O zero $end
$upscope $end
$scope module clkdiv $end
$var wire 1 R clk $end
$var wire 1 S rst $end
$var reg 33 c clock_count [32:0] $end
$var reg 1 D div_clk $end
$upscope $end
$scope module cop0 $end
$var wire 1 R clk $end
$var wire 20 d code [19:0] $end
$var wire 6 e hard_int [5:0] $end
$var wire 5 f reg_num [4:0] $end
$var wire 3 g reg_sel [2:0] $end
$var wire 1 S rst $end
$var wire 1 E reg_wr $end
$var wire 1 G reg_rd $end
$var wire 32 h next_pc [31:0] $end
$var wire 32 i in_data [31:0] $end
$var wire 4 j cop_op [3:0] $end
$var reg 32 k CAUSE [31:0] $end
$var reg 32 l COMPARE [31:0] $end
$var reg 32 m COUNT [31:0] $end
$var reg 32 n EPC [31:0] $end
$var reg 32 o ERROR_EPC [31:0] $end
$var reg 32 p STATUS [31:0] $end
$var reg 32 q out_data [31:0] $end
$upscope $end
$scope module ctrl $end
$var wire 6 r funct [5:0] $end
$var wire 5 s hint [4:0] $end
$var wire 6 t opcode [5:0] $end
$var wire 5 u rd [4:0] $end
$var wire 5 v rs [4:0] $end
$var wire 5 w rt [4:0] $end
$var wire 1 - reg_in $end
$var wire 2 x reg_dst [1:0] $end
$var wire 2 y ext_op [1:0] $end
$var wire 1 @ dm_wr $end
$var wire 1 A dm_rd $end
$var wire 1 K alu_src $end
$var wire 1 z _ins_5 $end
$var wire 3 { _ins_2_0 [2:0] $end
$var wire 8 | _ins_10_3 [7:0] $end
$var wire 32 } _ins [31:0] $end
$var reg 6 ~ alu_op [5:0] $end
$var reg 4 !" cop0_op [3:0] $end
$var reg 1 G cop0_rd $end
$var reg 1 E cop0_wr $end
$var reg 3 "" dm_op [2:0] $end
$var reg 4 #" pc_op [3:0] $end
$var reg 2 $" reg_src [1:0] $end
$var reg 1 * reg_wr $end
$upscope $end
$scope module ext $end
$var wire 2 %" ext_op [1:0] $end
$var wire 16 &" im [15:0] $end
$var reg 32 '" out [31:0] $end
$upscope $end
$scope module im $end
$var wire 1 R clk $end
$var wire 32 (" addr [31:0] $end
$var reg 32 )" data [31:0] $end
$upscope $end
$scope module pc $end
$var wire 32 *" addr [31:0] $end
$var wire 1 R clk $end
$var wire 32 +" cop_addr [31:0] $end
$var wire 1 Q great $end
$var wire 16 ," im1 [15:0] $end
$var wire 26 -" im2 [25:0] $end
$var wire 4 ." pc_op [3:0] $end
$var wire 1 S rest $end
$var wire 32 /" rt_addr [31:0] $end
$var wire 1 O zero $end
$var wire 32 0" pc_plus4 [31:0] $end
$var wire 32 1" jmp [31:0] $end
$var wire 32 2" j_reg [31:0] $end
$var wire 32 3" br [31:0] $end
$var reg 32 4" next_pc [31:0] $end
$var reg 32 5" pc_r [31:0] $end
$upscope $end
$scope module periph $end
$var wire 32 6" addr [31:0] $end
$var wire 1 R clk $end
$var wire 1 D clk_5hz $end
$var wire 3 7" dm_op [2:0] $end
$var wire 1 A dm_r $end
$var wire 1 @ dm_w $end
$var wire 3 8" io_btn [2:0] $end
$var wire 4 9" io_keypad_row [3:0] $end
$var wire 8 :" io_switch [7:0] $end
$var wire 1 S rst $end
$var wire 32 ;" wdata [31:0] $end
$var wire 4 <" keypad_data [3:0] $end
$var wire 8 =" io_seven_seg_n [7:0] $end
$var wire 6 >" io_seg_enables [5:0] $end
$var wire 4 ?" io_keypad_col [3:0] $end
$var reg 8 @" io_led [7:0] $end
$var reg 32 A" mem_reg [31:0] $end
$var reg 32 B" rdata [31:0] $end
$var reg 24 C" seg_digits [23:0] $end
$var reg 6 D" seg_en [5:0] $end
$scope module kp $end
$var wire 1 R clk $end
$var wire 1 E" div_clk $end
$var wire 4 F" row [3:0] $end
$var wire 1 S rst $end
$var reg 4 G" col [3:0] $end
$var reg 4 H" col_val [3:0] $end
$var reg 3 I" current_state [2:0] $end
$var reg 1 J" key_pressed_flag $end
$var reg 4 K" key_val [3:0] $end
$var reg 3 L" next_state [2:0] $end
$var reg 4 M" row_val [3:0] $end
$upscope $end
$scope module segs $end
$var wire 1 D clk $end
$var wire 24 N" data [23:0] $end
$var wire 6 O" enables [5:0] $end
$var wire 1 S rst $end
$var wire 6 P" show_one [5:0] $end
$var wire 8 Q" seven_segs_point [7:0] $end
$var wire 4 R" four_digits [3:0] $end
$var reg 3 S" select_display [2:0] $end
$scope module sev_segs $end
$var wire 4 T" Digit [3:0] $end
$var wire 1 U" EnableSegs $end
$var reg 7 V" A_G [6:0] $end
$var reg 7 W" Seg [6:0] $end
$upscope $end
$upscope $end
$upscope $end
$scope module reg_file $end
$var wire 1 R clk $end
$var wire 5 X" read1 [4:0] $end
$var wire 5 Y" read2 [4:0] $end
$var wire 1 * reg_wr $end
$var wire 1 S rst $end
$var wire 32 Z" wr_data [31:0] $end
$var wire 5 [" wr_num [4:0] $end
$var reg 32 \" data1 [31:0] $end
$var reg 32 ]" data2 [31:0] $end
$var integer 32 ^" i [31:0] $end
$upscope $end
$upscope $end
$enddefinitions $end
#0
$dumpvars
b100000 ^"
b0 ]"
b0 \"
b0 ["
bx Z"
b0 Y"
b100 X"
b111111 W"
b1111110 V"
1U"
b0 T"
b0 S"
b0 R"
b111111 Q"
b1 P"
b111111 O"
b0 N"
bx M"
b0 L"
b0 K"
0J"
b0 I"
bx H"
b0 G"
bz F"
1E"
b111111 D"
b0 C"
bx B"
bx A"
b0 @"
b0 ?"
b1 >"
b111111 ="
b0 <"
b0 ;"
bz :"
bz 9"
bz 8"
b0 7"
b0 6"
b10011111110000000000000000000000 5"
b10011111110000000000000000000100 4"
b10011111110000010010000000000100 3"
b0 2"
b10010010000000010010000000000000 1"
b10011111110000000000000000000100 0"
b10011111110000000000000000000100 /"
b1 ."
b100000000100100000000000 -"
b100100000000000 ,"
bx +"
b10011111110000000000000000000000 *"
b1000000100000000100100000000000 )"
b10011111110000000000000000000000 ("
b0 '"
b100100000000000 &"
b0 %"
bx $"
b1 #"
b0 ""
b1 !"
b111111 ~
b1000000100000000100100000000000 }
b0 |
b0 {
0z
b0 y
b10 x
b0 w
b100 v
b1001 u
b10000 t
b0 s
b0 r
bx q
b0 p
bx o
b10000000000000000000000110000000 n
b0 m
bx l
b0 k
b1 j
b0 i
b10011111110000000000000000000000 h
b0 g
b1001 f
bz e
b100000000100100000 d
b0 c
b0 b
bx a
b0 `
b111111 _
b1111111111 ^
b0 ]
b0 \
b0 [
b0 Z
b0 Y
b0 X
b0 W
b0 V
b1001 U
b0 T
1S
1R
0Q
0P
1O
b0 N
b111111 M
b0 L
0K
b100000000100100000 J
bx I
b1 H
0G
b0 F
1E
xD
bx C
b0 B
0A
0@
b0 ?
b0 >
b0 =
b100100000000000 <
b100000000100100000000000 ;
b1000000100000000100100000000000 :
b10011111110000000000000000000000 9
b0 8
b0 7
b1 6
b111111 5
b10000 4
b1 3
b10011111110000000000000000000100 2
b1001 1
b0 0
b0 /
b10 .
1-
b0 ,
bx +
0*
bx )
b0 (
b100 '
b0 &
b0 %
bz $
bz #
bz "
bz !
$end
#10000
b100000 ^"
0E"
0R
#20000
1E"
1R
#30000
b100000 ^"
0E"
0R
#40000
1E"
1R
#50000
b100000 ^"
0E"
0R
#60000
1E"
1R
#70000
b100000 ^"
0E"
0R
#80000
1E"
1R
#90000
b100000 ^"
0E"
0R
#100000
1E"
1R
#110000
0E"
0R
0S
#120000
1Q
0O
b10000000000000000000000 L
b10000000000000000000000 b
b10000000000000000000000 6"
b10000000000000000000000 Z
b10000000000000000000000 W
b1000000000000000000000000000000010000000000000000000000 [
b10000000000000000000000 N
b10000000000000000000000 T
b10000000000000000000000 ?
b10000000000000000000000 '"
b11 (
b11 ["
b10000000000000000000000 )
b10000000000000000000000 Z"
1K
b1000 |
b0 I
b0 q
b0 +"
b11 ,
b11 Y"
b10 +
b10 $"
1*
b100000 M
b100000 _
b100000 ~
0E
b0 H
b0 j
b0 !"
b11 >
b11 y
b11 %"
b110000000001 J
b110000000001 d
b10010000000011000000000100000000 1"
b110000000001000000 ;
b110000000001000000 -"
b1000000 <
b1000000 &"
b1000000 ,"
b1 %
b1 X
b1 s
b0 ^
b0 1
b0 U
b0 f
b0 u
b11 &
b11 w
b0 '
b0 v
b0 X"
b111100000000110000000001000000 }
b1111 4
b1111 t
b111100000000110000000001000000 :
b111100000000110000000001000000 )"
b10011111110000000000000000001000 4"
b1 c
b10011111110000000000000100001000 3"
b10011111110000000000000000001000 2
b10011111110000000000000000001000 /"
b10011111110000000000000000001000 0"
b10011111110000000000000000000100 9
b10011111110000000000000000000100 h
b10011111110000000000000000000100 ("
b10011111110000000000000000000100 *"
b10011111110000000000000000000100 5"
1E"
1R
#130000
b10000000000000000000000 /
b10000000000000000000000 i
b10000000000000000000000 ;"
b10000000000000000000000 ]"
0E"
0R
#140000
b10000000000000000000100 )
b10000000000000000000100 Z"
b10000000000000000000100 L
b10000000000000000000100 b
b10000000000000000000100 6"
b100 Z
b100 W
b10000000000000000000000000000000100 [
b100 N
b100 T
b100 ?
b100 '"
b1000000000000000000000000 ]
b10000000000000000000000 V
b1000000000000000000000000 \
b10000000000000000000000 Y
b10000000000000000000000 0
b10000000000000000000000 `
b10000000000000000000000 2"
b10000000000000000000000 \"
1K
b0 |
b100 {
b100101 M
b100101 _
b100101 ~
1*
b10 >
b10 y
b10 %"
b11000110000000000 J
b11000110000000000 d
b100 F
b100 g
b10010001100011000000000000010000 1"
b11000110000000000000100 ;
b11000110000000000000100 -"
b100 <
b100 &"
b100 ,"
b1 ^
b0 %
b0 X
b0 s
b11 '
b11 v
b11 X"
b100 =
b100 r
b110100011000110000000000000100 }
b1101 4
b1101 t
b110100011000110000000000000100 :
b110100011000110000000000000100 )"
b10011111110000000000000000001100 4"
b10 c
b10011111110000000000000000011100 3"
b10011111110000000000000000001100 2
b10011111110000000000000000001100 /"
b10011111110000000000000000001100 0"
b10011111110000000000000000001000 9
b10011111110000000000000000001000 h
b10011111110000000000000000001000 ("
b10011111110000000000000000001000 *"
b10011111110000000000000000001000 5"
1E"
1R
#150000
b10000000000000000000100 /
b10000000000000000000100 i
b10000000000000000000100 ;"
b10000000000000000000100 ]"
b1000000000000000000010000 ]
b10000000000000000000100 V
b1000000000000000000010000 \
b10000000000000000000100 Y
b10000000000000000000100 0
b10000000000000000000100 `
b10000000000000000000100 2"
b10000000000000000000100 \"
0E"
0R
#160000
b0 ?
b0 '"
b0 V
b0 Y
b0 0
b0 `
b0 2"
b0 \"
b0 \
b10000000000000000000100 Z
b0 ]
b10000000000000000000100 W
b1000000000000000000010000000000010000000000000000000100 [
b10000000000000000000100 N
b10000000000000000000100 T
0K
b0 >
b0 y
b0 %"
b0 )
b0 Z"
0Q
1O
b0 L
b0 b
b0 6"
b10000000000000000000100 p
b0 {
1E
b1 H
b1 j
b1 !"
b111111 M
b111111 _
b111111 ~
0*
b100000110110000000 J
b100000110110000000 d
b0 F
b0 g
b10010010000011011000000000000000 1"
b100000110110000000000000 ;
b100000110110000000000000 -"
b110000000000000 <
b110000000000000 &"
b110000000000000 ,"
b1111111111111 ^
b1100 1
b1100 U
b1100 f
b1100 u
b100 '
b100 v
b100 X"
b0 =
b0 r
b1000000100000110110000000000000 }
b10000 4
b10000 t
b1000000100000110110000000000000 :
b1000000100000110110000000000000 )"
b10011111110000000000000000010000 4"
b11 c
b10011111110000011000000000010000 3"
b10011111110000000000000000010000 2
b10011111110000000000000000010000 /"
b10011111110000000000000000010000 0"
b10011111110000000000000000001100 9
b10011111110000000000000000001100 h
b10011111110000000000000000001100 ("
b10011111110000000000000000001100 *"
b10011111110000000000000000001100 5"
1E"
1R
#170000
0E"
0R
#180000
b0 Z
b0 W
b0 [
b0 N
b0 T
b0 /
b0 i
b0 ;"
b0 ]"
b0 (
b0 ["
b0 k
b0 ,
b0 Y"
1E
b1 H
b1 j
b1 !"
b100000000110100000 J
b100000000110100000 d
b10010010000000011010000000000000 1"
b100000000110100000000000 ;
b100000000110100000000000 -"
b110100000000000 <
b110100000000000 &"
b110100000000000 ,"
b11111111111111 ^
b1101 1
b1101 U
b1101 f
b1101 u
b1000000100000000110100000000000 }
b0 &
b0 w
b1000000100000000110100000000000 :
b1000000100000000110100000000000 )"
b10011111110000000000000000010100 4"
b100 c
b10011111110000011010000000010100 3"
b10011111110000000000000000010100 2
b10011111110000000000000000010100 /"
b10011111110000000000000000010100 0"
b10011111110000000000000000010000 9
b10011111110000000000000000010000 h
b10011111110000000000000000010000 ("
b10011111110000000000000000010000 *"
b10011111110000000000000000010000 5"
1E"
1R
#190000
0E"
0R
#200000
b0 l
1E
b1 H
b1 j
b1 !"
b100000000101100000 J
b100000000101100000 d
b10010010000000010110000000000000 1"
b100000000101100000000000 ;
b100000000101100000000000 -"
b101100000000000 <
b101100000000000 &"
b101100000000000 ,"
b111111111111 ^
b1000000100000000101100000000000 }
b1011 1
b1011 U
b1011 f
b1011 u
b1000000100000000101100000000000 :
b1000000100000000101100000000000 )"
b10011111110000000000000000011000 4"
b101 c
b10011111110000010110000000011000 3"
b10011111110000000000000000011000 2
b10011111110000000000000000011000 /"
b10011111110000000000000000011000 0"
b10011111110000000000000000010100 9
b10011111110000000000000000010100 h
b10011111110000000000000000010100 ("
b10011111110000000000000000010100 *"
b10011111110000000000000000010100 5"
1E"
1R
#210000
0E"
0R
#220000
b10011111110000000000000000000000 )
b10011111110000000000000000000000 Z"
1Q
0O
b10011111110000000000000000000000 L
b10011111110000000000000000000000 b
b10011111110000000000000000000000 6"
b10011111110000000000000000000000 Z
b10011111110000000000000000000000 W
b1001111111000000000000000000000010011111110000000000000000000000 [
b10011111110000000000000000000000 N
b10011111110000000000000000000000 T
b10011111110000000000000000000000 ?
b10011111110000000000000000000000 '"
b11111 (
b11111 ["
1K
b11111000 |
b11111 ,
b11111 Y"
1*
b100000 M
b100000 _
b100000 ~
0E
b0 H
b0 j
b0 !"
b11 >
b11 y
b11 %"
b111111001111111 J
b111111001111111 d
b10010000011111100111111100000000 1"
b111111001111111000000 ;
b111111001111111000000 -"
b1001111111000000 <
b1001111111000000 &"
b1001111111000000 ,"
b11111 %
b11111 X
b11111 s
b0 ^
b10011 1
b10011 U
b10011 f
b10011 u
b11111 &
b11111 w
b0 '
b0 v
b0 X"
b111100000111111001111111000000 }
b1111 4
b1111 t
b111100000111111001111111000000 :
b111100000111111001111111000000 )"
b10011111110000000000000000011100 4"
b110 c
b10011111101111100111111100011100 3"
b10011111110000000000000000011100 2
b10011111110000000000000000011100 /"
b10011111110000000000000000011100 0"
b10011111110000000000000000011000 9
b10011111110000000000000000011000 h
b10011111110000000000000000011000 ("
b10011111110000000000000000011000 *"
b10011111110000000000000000011000 5"
1E"
1R
#230000
b10011111110000000000000000000000 /
b10011111110000000000000000000000 i
b10011111110000000000000000000000 ;"
b10011111110000000000000000000000 ]"
0E"
0R
#240000
b10011111110000000000000000111000 )
b10011111110000000000000000111000 Z"
b111000 Z
b111000 W
b11100000000000000000000000000000111000 [
b111000 N
b111000 T
0P
b10011111110000000000000000111000 L
b10011111110000000000000000111000 b
b10011111110000000000000000111000 6"
b111000 ?
b111000 '"
b1111111111111111111111111110101011110010000000000000000000000000 ]
b10011111110000000000000000000000 V
b10001011110010000000000000000000000000 \
b10011111110000000000000000000000 Y
b10011111110000000000000000000000 0
b10011111110000000000000000000000 `
b10011111110000000000000000000000 2"
b10011111110000000000000000000000 \"
1K
b111 |
1z
b100001 M
b100001 _
b100001 ~
1*
b1 >
b1 y
b1 %"
b11111111110000000000 J
b11111111110000000000 d
b10011111111111000000000011100000 1"
b11111111110000000000111000 ;
b11111111110000000000111000 -"
b111000 <
b111000 &"
b111000 ,"
b1 ^
b0 %
b0 X
b0 s
b0 1
b0 U
b0 f
b0 u
b11111 '
b11111 v
b11111 X"
b111000 =
b111000 r
b100111111111110000000000111000 }
b1001 4
b1001 t
b100111111111110000000000111000 :
b100111111111110000000000111000 )"
b10011111110000000000000000100000 4"
b111 c
b10011111110000000000000100000000 3"
b10011111110000000000000000100000 2
b10011111110000000000000000100000 /"
b10011111110000000000000000100000 0"
b10011111110000000000000000011100 9
b10011111110000000000000000011100 h
b10011111110000000000000000011100 ("
b10011111110000000000000000011100 *"
b10011111110000000000000000011100 5"
1E"
1R
#250000
b10011111110000000000000001110000 )
b10011111110000000000000001110000 Z"
b10011111110000000000000001110000 L
b10011111110000000000000001110000 b
b10011111110000000000000001110000 6"
b10011111110000000000000000111000 /
b10011111110000000000000000111000 i
b10011111110000000000000000111000 ;"
b10011111110000000000000000111000 ]"
b1111111111111111111111111110101011110010000000000000110001000000 ]
b10011111110000000000000000111000 V
b10001011110010000000000000110001000000 \
b10011111110000000000000000111000 Y
b10011111110000000000000000111000 0
b10011111110000000000000000111000 `
b10011111110000000000000000111000 2"
b10011111110000000000000000111000 \"
0E"
0R
#260000
0Q
1O
b0 /
b0 i
b0 ;"
b0 ]"
b0 ?
b0 '"
b0 V
b0 Y
b0 0
b0 `
b0 2"
b0 \"
b0 \
b0 Z
b0 ]
b0 W
b0 [
b0 N
b0 T
0K
b0 >
b0 y
b0 %"
b0 )
b0 Z"
b100 (
b100 ["
b0 L
b0 b
b0 6"
b0 ,
b0 Y"
b100 |
b101 {
b100101 M
b100101 _
b100101 ~
1*
b1 .
b1 x
b10000000 J
b10000000 d
b101 F
b101 g
b10010000000000001000000010010100 1"
b10000000100101 ;
b10000000100101 -"
b10000000100101 <
b10000000100101 &"
b10000000100101 ,"
b11111 ^
b100 1
b100 U
b100 f
b100 u
b0 &
b0 w
b0 '
b0 v
b0 X"
b100101 =
b100101 r
b10000000100101 }
b0 4
b0 t
b10000000100101 :
b10000000100101 )"
b10011111110000000000000000100100 4"
b1000 c
b10011111110000001000000010111000 3"
b10011111110000000000000000100100 2
b10011111110000000000000000100100 /"
b10011111110000000000000000100100 0"
b10011111110000000000000000100000 9
b10011111110000000000000000100000 h
b10011111110000000000000000100000 ("
b10011111110000000000000000100000 *"
b10011111110000000000000000100000 5"
1E"
1R
#270000
0E"
0R
#280000
b10011111110000000000000000000000 )
b10011111110000000000000000000000 Z"
1Q
0O
b10011111110000000000000000000000 L
b10011111110000000000000000000000 b
b10011111110000000000000000000000 6"
b10011111110000000000000000000000 Z
b10011111110000000000000000000000 W
b1001111111000000000000000000000010011111110000000000000000000000 [
b10011111110000000000000000000000 N
b10011111110000000000000000000000 T
b10011111110000000000000000000000 ?
b10011111110000000000000000000000 '"
b10 (
b10 ["
1K
b10 ,
b10 Y"
b11111000 |
b0 {
0z
b100000 M
b100000 _
b100000 ~
1*
b11 >
b11 y
b11 %"
b10 .
b10 x
b101001111111 J
b101001111111 d
b0 F
b0 g
b10010000000010100111111100000000 1"
b101001111111000000 ;
b101001111111000000 -"
b1001111111000000 <
b1001111111000000 &"
b1001111111000000 ,"
b11111 %
b11111 X
b11111 s
b0 ^
b10011 1
b10011 U
b10011 f
b10011 u
b10 &
b10 w
b0 =
b0 r
b111100000000101001111111000000 }
b1111 4
b1111 t
b111100000000101001111111000000 :
b111100000000101001111111000000 )"
b10011111110000000000000000101000 4"
b1001 c
b10011111101111100111111100101000 3"
b10011111110000000000000000101000 2
b10011111110000000000000000101000 /"
b10011111110000000000000000101000 0"
b10011111110000000000000000100100 9
b10011111110000000000000000100100 h
b10011111110000000000000000100100 ("
b10011111110000000000000000100100 *"
b10011111110000000000000000100100 5"
1E"
1R
#290000
b10011111110000000000000000000000 /
b10011111110000000000000000000000 i
b10011111110000000000000000000000 ;"
b10011111110000000000000000000000 ]"
0E"
0R
#300000
b10011111110000000000000001000000 )
b10011111110000000000000001000000 Z"
b1000000 Z
b1000000 W
b100000000000000000000000000000001000000 [
b1000000 N
b1000000 T
0P
b10011111110000000000000001000000 L
b10011111110000000000000001000000 b
b10011111110000000000000001000000 6"
b1000000 ?
b1000000 '"
b1111111111111111111111111110011111110000000000000000000000000000 ]
b10011111110000000000000000000000 V
b10011111110000000000000000000000000000 \
b10011111110000000000000000000000 Y
b10011111110000000000000000000000 0
b10011111110000000000000000000000 `
b10011111110000000000000000000000 2"
b10011111110000000000000000000000 \"
1K
b1000 |
b100001 M
b100001 _
b100001 ~
1*
b1 >
b1 y
b1 %"
b10000100000000001 J
b10000100000000001 d
b10010001000010000000000100000000 1"
b10000100000000001000000 ;
b10000100000000001000000 -"
b1000000 <
b1000000 &"
b1000000 ,"
b1 %
b1 X
b1 s
b0 1
b0 U
b0 f
b0 u
b10 '
b10 v
b10 X"
b100100010000100000000001000000 }
b1001 4
b1001 t
b100100010000100000000001000000 :
b100100010000100000000001000000 )"
b10011111110000000000000000101100 4"
b1010 c
b10011111110000000000000100101100 3"
b10011111110000000000000000101100 2
b10011111110000000000000000101100 /"
b10011111110000000000000000101100 0"
b10011111110000000000000000101000 9
b10011111110000000000000000101000 h
b10011111110000000000000000101000 ("
b10011111110000000000000000101000 *"
b10011111110000000000000000101000 5"
1E"
1R
#310000
b10011111110000000000000010000000 )
b10011111110000000000000010000000 Z"
b10011111110000000000000010000000 L
b10011111110000000000000010000000 b
b10011111110000000000000010000000 6"
b10011111110000000000000001000000 /
b10011111110000000000000001000000 i
b10011111110000000000000001000000 ;"
b10011111110000000000000001000000 ]"
b1111111111111111111111111110011111110000000000000001000000000000 ]
b10011111110000000000000001000000 V
b10011111110000000000000001000000000000 \
b10011111110000000000000001000000 Y
b10011111110000000000000001000000 0
b10011111110000000000000001000000 `
b10011111110000000000000001000000 2"
b10011111110000000000000001000000 \"
0E"
0R
#320000
b0 ?
b0 '"
b0 V
b0 Y
b0 0
b0 `
b0 2"
b0 \"
b0 \
b10011111110000000000000001000000 Z
b0 ]
b10011111110000000000000001000000 W
b1001111111000000000000000100000010011111110000000000000001000000 [
b10011111110000000000000001000000 N
b10011111110000000000000001000000 T
0K
b0 >
b0 y
b0 %"
b0 )
b0 Z"
b0 |
0Q
1O
b0 L
b0 b
b0 6"
b10011111110000000000000001000000 o
1E
b1 H
b1 j
b1 !"
b111111 M
b111111 _
b111111 ~
0*
b100000101111000000 J
b100000101111000000 d
b10010010000010111100000000000000 1"
b100000101111000000000000 ;
b100000101111000000000000 -"
b1111000000000000 <
b1111000000000000 &"
b1111000000000000 ,"
b0 %
b0 X
b0 s
b1111111111111111111111111111111 ^
b11110 1
b11110 U
b11110 f
b11110 u
b100 '
b100 v
b100 X"
b1000000100000101111000000000000 }
b10000 4
b10000 t
b1000000100000101111000000000000 :
b1000000100000101111000000000000 )"
b10011111110000000000000000110000 4"
b1011 c
b10011111101111111100000000110000 3"
b10011111110000000000000000110000 2
b10011111110000000000000000110000 /"
b10011111110000000000000000110000 0"
b10011111110000000000000000101100 9
b10011111110000000000000000101100 h
b10011111110000000000000000101100 ("
b10011111110000000000000000101100 *"
b10011111110000000000000000101100 5"
1E"
1R
#330000
0E"
0R
#340000
b0 Z
b0 W
b0 [
b0 N
b0 T
b0 /
b0 i
b0 ;"
b0 ]"
b0 (
b0 ["
b11000 |
b0 ,
b0 Y"
0E
b0 H
b0 j
b0 !"
b1 .
b1 x
b11 J
b11 d
b10010000000000000000001100000000 1"
b11000000 ;
b11000000 -"
b11000000 <
b11000000 &"
b11000000 ,"
b11 %
b11 X
b11 s
b0 ^
b0 1
b0 U
b0 f
b0 u
b0 &
b0 w
b0 '
b0 v
b0 X"
b11000000 }
b0 4
b0 t
b11000000 :
b11000000 )"
b10011111110000000000000000110100 4"
b1100 c
b10011111110000000000001100110100 3"
b10011111110000000000000000110100 2
b10011111110000000000000000110100 /"
b10011111110000000000000000110100 0"
b10011111110000000000000000110000 9
b10011111110000000000000000110000 h
b10011111110000000000000000110000 ("
b10011111110000000000000000110000 *"
b10011111110000000000000000110000 5"
1E"
1R
#350000
0E"
0R
#360000
b10011111110000000000000001000000 I
b10011111110000000000000001000000 q
b10011111110000000000000001000000 +"
b10000000000000000000000 p
b11 |
b1010 3
b1010 #"
b1010 ."
b101 H
b101 j
b101 !"
b10 .
b10 x
b10000000000000000000 J
b10000000000000000000 d
b10011000000000000000000001100000 1"
b10000000000000000000011000 ;
b10000000000000000000011000 -"
b11000 <
b11000 &"
b11000 ,"
b1 ^
b0 %
b0 X
b0 s
b10000 '
b10000 v
b10000 X"
b11000 =
b11000 r
b1000010000000000000000000011000 }
b10000 4
b10000 t
b1000010000000000000000000011000 :
b1000010000000000000000000011000 )"
b10011111110000000000000001000000 4"
b1101 c
b10011111110000000000000010011000 3"
b10011111110000000000000000111000 2
b10011111110000000000000000111000 /"
b10011111110000000000000000111000 0"
b10011111110000000000000000110100 9
b10011111110000000000000000110100 h
b10011111110000000000000000110100 ("
b10011111110000000000000000110100 *"
b10011111110000000000000000110100 5"
1E"
1R
#370000
0E"
0R
#380000
b10011111110000000000000000111000 )
b10011111110000000000000000111000 Z"
1Q
0O
b10011111110000000000000000111000 L
b10011111110000000000000000111000 b
b10011111110000000000000000111000 6"
b10011111110000000000000000111000 V
b10011111110000000000000000111000 Y
b10011111110000000000000000111000 0
b10011111110000000000000000111000 `
b10011111110000000000000000111000 2"
b10011111110000000000000000111000 \"
b10000 (
b10000 ["
b100 |
b101 {
1z
1*
b100101 M
b100101 _
b100101 ~
b0 H
b0 j
b0 !"
b1 3
b1 #"
b1 ."
b1 .
b1 x
b11111000001000000000 J
b11111000001000000000 d
b101 F
b101 g
b10011111100000100000000010010100 1"
b11111000001000000000100101 ;
b11111000001000000000100101 -"
b1000000000100101 <
b1000000000100101 &"
b1000000000100101 ,"
b11111111111111111 ^
b10000 1
b10000 U
b10000 f
b10000 u
b11111 '
b11111 v
b11111 X"
b100101 =
b100101 r
b11111000001000000000100101 }
b0 4
b0 t
b11111000001000000000100101 :
b11111000001000000000100101 )"
b10011111110000000000000001000100 4"
b0 I
b0 q
b0 +"
b1110 c
b10011111101111100000000011011000 3"
b10011111110000000000000001000100 2
b10011111110000000000000001000100 /"
b10011111110000000000000001000100 0"
b10011111110000000000000001000000 9
b10011111110000000000000001000000 h
b10011111110000000000000001000000 ("
b10011111110000000000000001000000 *"
b10011111110000000000000001000000 5"
1E"
1R
#390000
0E"
0R
